Module 1: Mastering R for Spatial Data – An Introduction to GeoEpiR
…
[1] "sf"         "tbl_df"     "tbl"        "data.frame"

Show/Hide Code

# 2. Print the object
print(world)

Simple feature collection with 177 features and 10 fields
Geometry type: MULTIPOLYGON
Dimension:     XY
Bounding box:  xmin: -180 ymin: -89.9 xmax: 180 ymax: 83.64513
Geodetic CRS:  WGS 84
# A tibble: 177 × 11
   iso_a2 name_long continent region_un subregion type  area_km2     pop lifeExp
 * <chr>  <chr>     <chr>     <chr>     <chr>     <chr>    <dbl>   <dbl>   <dbl>
 1 FJ     Fiji      Oceania   Oceania   Melanesia Sove…   1.93e4  8.86e5    70.0
 2 TZ     Tanzania  Africa    Africa    Eastern … Sove…   9.33e5  5.22e7    64.2
 3 EH     Western … Africa    Africa    Northern… Inde…   9.63e4 NA         NA  
 4 CA     Canada    North Am… Americas  Northern… Sove…   1.00e7  3.55e7    82.0
 5 US     United S… North Am… Americas  Northern… Coun…   9.51e6  3.19e8    78.8
 6 KZ     Kazakhst… Asia      Asia      Central … Sove…   2.73e6  1.73e7    71.6
 7 UZ     Uzbekist… Asia      Asia      Central … Sove…   4.61e5  3.08e7    71.0
 8 PG     Papua Ne… Oceania   Oceania   Melanesia Sove…   4.65e5  7.76e6    65.2
 9 ID     Indonesia Asia      Asia      South-Ea… Sove…   1.82e6  2.55e8    68.9
10 AR     Argentina South Am… Americas  South Am… Sove…   2.78e6  4.30e7    76.3
# ℹ 167 more rows
# ℹ 2 more variables: gdpPercap <dbl>, geom <MULTIPOLYGON [°]>
…
# 3. Manipulate data with dplyr
world_africa <- world %>%
  filter(continent == "Africa") %>%
  select(name_long, pop, gdpPercap, lifeExp, geom)

# Let's look at our new, smaller sf object
print(world_africa)

Simple feature collection with 51 features and 4 fields
Geometry type: MULTIPOLYGON
Dimension:     XY
Bounding box:  xmin: -17.62504 ymin: -34.81917 xmax: 51.13387 ymax: 37.34999
Geodetic CRS:  WGS 84
# A tibble: 51 × 5
   name_long                     pop gdpPercap lifeExp                      geom
   <chr>                       <dbl>     <dbl>   <dbl>        <MULTIPOLYGON [°]>
 1 Tanzania                   5.22e7     2402.    64.2 (((33.90371 -0.95, 31.86…
 2 Western Sahara            NA            NA     NA   (((-8.66559 27.65643, -8…
 3 Democratic Republic of t…  7.37e7      785.    58.8 (((29.34 -4.499983, 29.2…
 4 Somalia                    1.35e7       NA     55.5 (((41.58513 -1.68325, 41…
 5 Kenya                      4.60e7     2753.    66.2 (((39.20222 -4.67677, 39…
 6 Sudan                      3.77e7     4188.    64.0 (((23.88711 8.619775, 24…
 7 Chad                       1.36e7     2077.    52.2 (((23.83766 19.58047, 19…
 8 South Africa               5.45e7    12390.    61.0 (((16.34498 -28.57671, 1…
 9 Lesotho                    2.15e6     2677.    53.3 (((28.97826 -28.9556, 28…
10 Zimbabwe                   1.54e7     1925.    59.4 (((31.19141 -22.25151, 3…
# ℹ 41 more rows
…
